3,7,14
8,8,152
9,183,4
11,14,8
12,125,189
13,15,103
14,187,155
20,19,13
21,21,14
22,20,17
25,28,20
29,32,24
31,34,177
32,33,25
34,37,116
35,40,28
36,42,33
37,138,120
39,139,35
43,49,39
44,50,37
46,146,160
47,55,44
48,147,45
50,58,46
51,59,47
52,60,124
54,61,197
55,64,125
57,151,127
58,69,56
59,68,55
60,70,57
63,72,58
64,73,59
65,74,62
67,75,64
68,159,65
70,81,70
71,80,69
72,82,71
73,84,73
74,85,72
76,234,74
77,87,167
79,86,75
81,89,78
82,91,141
85,92,80
86,94,81
87,95,82
88,96,84
89,98,85
92,100,146
93,101,187
95,103,89
106,126,10
111,25,18
113,132,21
114,31,22
115,191,178
116,135,115
121,52,122
126,150,49
130,154,179
131,157,60
133,209,165
136,79,133
137,244,182
138,163,135
139,164,137
140,88,169
141,166,138
144,168,172
146,173,144
149,102,87
156,188,156
173,177,91
174,106,92
179,36,114
181,46,119
182,148,123
185,251,191
191,39,193
194,246,192
197,237,185
201,253,184
188,83,183
160,30,158
28,190,23
7,7,1
199,23,16
107,128,107
117,41,29
127,199,161
168,245,134
120,195,38
18,129,12
178,189,111
23,24,157
16,127,105
167,77,164