3,7,9,11
4,5,112,113
5,122,111,4
6,6,4,5
7,7,5,6
8,8,6,9
11,14,10,16
12,125,211,17
13,15,12,118
21,21,17,21
24,26,20,123
27,134,120,126
29,32,26,26
32,33,29,28
34,37,31,30
35,40,34,32
36,42,36,37
37,138,127,129
39,139,38,39
42,48,39,40
45,141,41,42
47,55,45,47
50,58,48,49
51,59,49,50
52,60,134,132
54,61,196,202
55,64,53,54
57,151,55,56
58,69,61,63
59,68,60,204
60,70,139,136
62,71,62,64
63,72,63,66
64,73,64,67
66,158,66,69
68,159,68,71
70,81,72,73
71,80,71,207
72,82,73,74
74,85,76,76
75,252,186,77
76,234,77,146
79,86,78,78
81,89,82,83
83,213,83,211
85,92,88,84
86,94,89,86
87,95,90,87
89,98,94,91
92,100,96,94
93,101,98,95
95,103,101,98
99,3,110,112
100,4,3,3
101,10,114,11
106,126,117,170
114,31,27,25
117,41,35,33
120,195,130,130
121,52,131,131
131,157,199,140
136,79,150,143
138,163,153,229
139,164,154,147
140,88,79,80
141,166,204,230
144,168,85,153
145,170,92,89
156,188,170,199
167,77,182,142
168,245,151,145
172,169,91,88
173,177,216,159
174,106,217,100
180,137,32,175
182,148,50,201
186,207,144,139
191,39,33,200
194,246,214,233
197,237,190,190
199,23,19,23
105,16,13,120
188,83,74,75
171,93,87,188
127,199,137,57
33,38,125,128
22,20,18,19
25,28,23,125
179,36,30,173
44,50,40,41
122,142,42,45
65,74,65,68
28,190,122,27
163,198,52,203